module gitlab.eclipse.org/eclipse/xfsc/tsa/policy

go 1.21.2

require (
	github.com/cloudevents/sdk-go/protocol/nats/v2 v2.14.0
	github.com/cloudevents/sdk-go/v2 v2.14.0
	github.com/go-git/go-git/v5 v5.10.0
	github.com/google/uuid v1.4.0
	github.com/jpillora/ipfilter v1.2.9
	github.com/kelseyhightower/envconfig v1.4.0
	github.com/lestrrat-go/jwx/v2 v2.0.15-0.20231118095921-ee031a0086ff
	github.com/open-policy-agent/opa v0.58.0
	github.com/prometheus/client_golang v1.17.0
	github.com/stretchr/testify v1.8.4
	gitlab.eclipse.org/eclipse/xfsc/tsa/golib v1.3.2
	go.mongodb.org/mongo-driver v1.13.0
	go.uber.org/zap v1.26.0
	goa.design/goa/v3 v3.14.0
	golang.ngrok.com/ngrok v1.5.1
	golang.org/x/oauth2 v0.11.0
	golang.org/x/sync v0.4.0
)

require (
	github.com/go-stack/stack v1.8.1 // indirect
	github.com/inconshreveable/log15 v3.0.0-testing.3+incompatible // indirect
	github.com/inconshreveable/log15/v3 v3.0.0-testing.5 // indirect
	github.com/jpillora/backoff v1.0.0 // indirect
	github.com/json-iterator/go v1.1.12 // indirect
	github.com/mattn/go-colorable v0.1.13 // indirect
	github.com/mattn/go-isatty v0.0.17 // indirect
	github.com/minio/highwayhash v1.0.2 // indirect
	github.com/modern-go/concurrent v0.0.0-20180306012644-bacd9c7ef1dd // indirect
	github.com/modern-go/reflect2 v1.0.2 // indirect
	github.com/nats-io/jwt/v2 v2.5.3 // indirect
	github.com/nats-io/nats.go v1.13.1-0.20220308171302-2f2f6968e98d // indirect
	github.com/nats-io/nkeys v0.4.6 // indirect
	github.com/nats-io/nuid v1.0.1 // indirect
	golang.ngrok.com/muxado/v2 v2.0.0 // indirect
	golang.org/x/term v0.14.0 // indirect
)

require (
	dario.cat/mergo v1.0.0 // indirect
	github.com/AnatolyRugalev/goregen v0.1.0 // indirect
	github.com/Microsoft/go-winio v0.6.1 // indirect
	github.com/OneOfOne/xxhash v1.2.8 // indirect
	github.com/ProtonMail/go-crypto v0.0.0-20230828082145-3c4c8a2d2371 // indirect
	github.com/acomagu/bufpipe v1.0.4 // indirect
	github.com/agnivade/levenshtein v1.1.1 // indirect
	github.com/beorn7/perks v1.0.1 // indirect
	github.com/cespare/xxhash/v2 v2.2.0 // indirect
	github.com/cloudflare/circl v1.3.3 // indirect
	github.com/cyphar/filepath-securejoin v0.2.4 // indirect
	github.com/davecgh/go-spew v1.1.1 // indirect
	github.com/decred/dcrd/dcrec/secp256k1/v4 v4.2.0 // indirect
	github.com/dimfeld/httppath v0.0.0-20170720192232-ee938bf73598 // indirect
	github.com/emirpasic/gods v1.18.1 // indirect
	github.com/go-chi/chi/v5 v5.0.10 // indirect
	github.com/go-git/gcfg v1.5.1-0.20230307220236-3a3c6141e376 // indirect
	github.com/go-git/go-billy/v5 v5.5.0 // indirect
	github.com/go-ini/ini v1.67.0 // indirect
	github.com/go-logr/logr v1.2.4 // indirect
	github.com/go-logr/stdr v1.2.2 // indirect
	github.com/gobwas/glob v0.2.3 // indirect
	github.com/goccy/go-json v0.10.2 // indirect
	github.com/golang/groupcache v0.0.0-20210331224755-41bb18bfe9da // indirect
	github.com/golang/protobuf v1.5.3 // indirect
	github.com/golang/snappy v0.0.4 // indirect
	github.com/gorilla/mux v1.8.0 // indirect
	github.com/gorilla/websocket v1.5.0 // indirect
	github.com/jbenet/go-context v0.0.0-20150711004518-d14ea06fba99 // indirect
	github.com/kevinburke/ssh_config v1.2.0 // indirect
	github.com/klauspost/compress v1.16.0 // indirect
	github.com/lestrrat-go/blackmagic v1.0.2 // indirect
	github.com/lestrrat-go/httpcc v1.0.1 // indirect
	github.com/lestrrat-go/httprc v1.0.4 // indirect
	github.com/lestrrat-go/iter v1.0.2 // indirect
	github.com/lestrrat-go/option v1.0.1 // indirect
	github.com/manveru/faker v0.0.0-20171103152722-9fbc68a78c4d // indirect
	github.com/matttproud/golang_protobuf_extensions v1.0.4 // indirect
	github.com/montanaflynn/stats v0.0.0-20171201202039-1bf9dbcd8cbe // indirect
	github.com/phuslu/iploc v1.0.20230201 // indirect
	github.com/pjbgf/sha1cd v0.3.0 // indirect
	github.com/pmezard/go-difflib v1.0.0 // indirect
	github.com/prometheus/client_model v0.4.1-0.20230718164431-9a2bf3000d16 // indirect
	github.com/prometheus/common v0.44.0 // indirect
	github.com/prometheus/procfs v0.11.1 // indirect
	github.com/rcrowley/go-metrics v0.0.0-20200313005456-10cdbea86bc0 // indirect
	github.com/segmentio/asm v1.2.0 // indirect
	github.com/sergi/go-diff v1.3.1 // indirect
	github.com/sirupsen/logrus v1.9.3 // indirect
	github.com/skeema/knownhosts v1.2.0 // indirect
	github.com/tchap/go-patricia/v2 v2.3.1 // indirect
	github.com/tomasen/realip v0.0.0-20180522021738-f0c99a92ddce // indirect
	github.com/xanzy/ssh-agent v0.3.3 // indirect
	github.com/xdg-go/pbkdf2 v1.0.0 // indirect
	github.com/xdg-go/scram v1.1.2 // indirect
	github.com/xdg-go/stringprep v1.0.4 // indirect
	github.com/xeipuuv/gojsonpointer v0.0.0-20190905194746-02993c407bfb // indirect
	github.com/xeipuuv/gojsonreference v0.0.0-20180127040603-bd5ef7bd5415 // indirect
	github.com/yashtewari/glob-intersection v0.2.0 // indirect
	github.com/youmark/pkcs8 v0.0.0-20181117223130-1be2e3e5546d // indirect
	go.opentelemetry.io/otel v1.19.0 // indirect
	go.opentelemetry.io/otel/metric v1.19.0 // indirect
	go.opentelemetry.io/otel/sdk v1.19.0 // indirect
	go.opentelemetry.io/otel/trace v1.19.0 // indirect
	go.uber.org/multierr v1.11.0 // indirect
	golang.org/x/crypto v0.15.0 // indirect
	golang.org/x/mod v0.13.0 // indirect
	golang.org/x/net v0.17.0 // indirect
	golang.org/x/sys v0.14.0 // indirect
	golang.org/x/text v0.14.0 // indirect
	golang.org/x/tools v0.14.0 // indirect
	google.golang.org/appengine v1.6.7 // indirect
	google.golang.org/protobuf v1.31.0 // indirect
	gopkg.in/warnings.v0 v0.1.2 // indirect
	gopkg.in/yaml.v2 v2.4.0 // indirect
	gopkg.in/yaml.v3 v3.0.1 // indirect
	sigs.k8s.io/yaml v1.4.0 // indirect
)
